<mxfile host="app.diagrams.net" modified="2023-05-26T18:16:36.592Z" agent="Mozilla/5.0 (Windows NT 10.0; Win64; x64; rv:109.0) Gecko/20100101 Firefox/113.0" etag="e5EPp0FXhTe1iurB8qvB" version="21.3.4" type="device">
  <diagram name="Page-1" id="7cUp_wnAFXDZNN_nuLDQ">
    <mxGraphModel dx="1434" dy="822" grid="1" gridSize="10" guides="1" tooltips="1" connect="1" arrows="1" fold="1" page="1" pageScale="1" pageWidth="850" pageHeight="1100" math="0" shadow="0">
      <root>
        <mxCell id="0" />
        <mxCell id="1" parent="0" />
        <mxCell id="jIqFed2dkHeXCYYBP8St-3" value="&lt;div&gt;Until FightEndCondition is not met&lt;/div&gt;&lt;div&gt;IRoundHandler.StartRound()&lt;/div&gt;" style="edgeStyle=orthogonalEdgeStyle;rounded=0;orthogonalLoop=1;jettySize=auto;html=1;entryX=0.5;entryY=0;entryDx=0;entryDy=0;" edge="1" parent="1" source="jIqFed2dkHeXCYYBP8St-1" target="jIqFed2dkHeXCYYBP8St-8">
          <mxGeometry relative="1" as="geometry" />
        </mxCell>
        <mxCell id="jIqFed2dkHeXCYYBP8St-1" value="&lt;div&gt;IFightResolver&lt;/div&gt;" style="rounded=1;whiteSpace=wrap;html=1;" vertex="1" parent="1">
          <mxGeometry x="40" y="40" width="120" height="40" as="geometry" />
        </mxCell>
        <mxCell id="jIqFed2dkHeXCYYBP8St-5" value="&lt;div&gt;foreach queable do&lt;/div&gt;&lt;div&gt;queable.TurnAction()&lt;br&gt;&lt;/div&gt;" style="edgeStyle=orthogonalEdgeStyle;rounded=0;orthogonalLoop=1;jettySize=auto;html=1;entryX=0.5;entryY=0;entryDx=0;entryDy=0;" edge="1" parent="1" source="jIqFed2dkHeXCYYBP8St-2" target="jIqFed2dkHeXCYYBP8St-4">
          <mxGeometry relative="1" as="geometry" />
        </mxCell>
        <mxCell id="jIqFed2dkHeXCYYBP8St-2" value="&lt;div&gt;ITurnHandler&lt;/div&gt;" style="rounded=1;whiteSpace=wrap;html=1;" vertex="1" parent="1">
          <mxGeometry x="40" y="360" width="120" height="40" as="geometry" />
        </mxCell>
        <mxCell id="jIqFed2dkHeXCYYBP8St-7" style="edgeStyle=orthogonalEdgeStyle;rounded=0;orthogonalLoop=1;jettySize=auto;html=1;entryX=0;entryY=0.5;entryDx=0;entryDy=0;" edge="1" parent="1" source="jIqFed2dkHeXCYYBP8St-4" target="jIqFed2dkHeXCYYBP8St-6">
          <mxGeometry relative="1" as="geometry" />
        </mxCell>
        <mxCell id="jIqFed2dkHeXCYYBP8St-4" value="&lt;div&gt;ITurnQueable&lt;/div&gt;" style="rounded=1;whiteSpace=wrap;html=1;" vertex="1" parent="1">
          <mxGeometry x="40" y="520" width="120" height="40" as="geometry" />
        </mxCell>
        <mxCell id="jIqFed2dkHeXCYYBP8St-6" value=".TurnAction()" style="shape=parallelogram;perimeter=parallelogramPerimeter;whiteSpace=wrap;html=1;fixedSize=1;" vertex="1" parent="1">
          <mxGeometry x="200" y="520" width="120" height="40" as="geometry" />
        </mxCell>
        <mxCell id="jIqFed2dkHeXCYYBP8St-9" value="ITurnHandler.ProcessQueue()" style="edgeStyle=orthogonalEdgeStyle;rounded=0;orthogonalLoop=1;jettySize=auto;html=1;entryX=0.5;entryY=0;entryDx=0;entryDy=0;" edge="1" parent="1" source="jIqFed2dkHeXCYYBP8St-8" target="jIqFed2dkHeXCYYBP8St-2">
          <mxGeometry relative="1" as="geometry" />
        </mxCell>
        <mxCell id="jIqFed2dkHeXCYYBP8St-8" value="IRoundHandler" style="rounded=1;whiteSpace=wrap;html=1;" vertex="1" parent="1">
          <mxGeometry x="40" y="200" width="120" height="40" as="geometry" />
        </mxCell>
      </root>
    </mxGraphModel>
  </diagram>
</mxfile>
